Urchins
…
# Make purple urchin table
tot_p_urchins <- purple_urchins %>%
  select(year, site_full) %>%
  count(year, site_full) # Use 'count()' to derive total number of purple urchins at each site for each year
tot_p_urchins # View table

## # A tibble: 61 x 3
##     year site_full               n
##    <dbl> <chr>               <int>
##  1  2008 Arroyo Quemado Reef    67
##  2  2008 Carpinteria Reef      265
##  3  2008 Mohawk Reef           294
##  4  2008 Naples Reef           246
##  5  2009 Arroyo Quemado Reef   926
##  6  2009 Carpinteria Reef     1315
##  7  2009 Mohawk Reef          1344
##  8  2009 Naples Reef          1064
##  9  2010 Arroyo Quemado Reef   921
## 10  2010 Carpinteria Reef      930
## #  with 51 more rows
…
